Check for supported export formats from Cristin to Zotero — CristinSupported • c2z
…
    Details

    Please see
  https://oeysan.github.io/c2z/

    See also

    tibble

    Examples

# Supported Cristin items
print(CristinSupported(), n = 5)
#> # A tibble: 33 × 2
#>   cristin.category zotero.types
#>   <chr>            <chr>       
#> 1 ANTHOLOGYACA     book        
#> 2 BOOKTRANSL       book        
#> 3 MONOGRAPHACA     book        
#> 4 COMMENTARYACA    book        
#> 5 TEXTBOOK         book        
#> # ℹ 28 more rows
…
